0 info it worked if it ends with ok
1 verbose cli [ 'E:\\Nodejs\\node.exe',
1 verbose cli   'E:\\Nodejs\\node_modules\\npm\\bin\\npm-cli.js',
1 verbose cli   'run',
1 verbose cli   'tsc:w' ]
2 info using npm@2.15.1
3 info using node@v4.4.3
4 verbose run-script [ 'pretsc:w', 'tsc:w', 'posttsc:w' ]
5 info pretsc:w product-management@1.0.0
6 info tsc:w product-management@1.0.0
7 verbose unsafe-perm in lifecycle true
8 info product-management@1.0.0 Failed to exec tsc:w script
9 verbose stack Error: product-management@1.0.0 tsc:w: `tsc -w`
9 verbose stack Exit status 3221225786
9 verbose stack     at EventEmitter.<anonymous> (E:\Nodejs\node_modules\npm\lib\utils\lifecycle.js:217:16)
9 verbose stack     at emitTwo (events.js:87:13)
9 verbose stack     at EventEmitter.emit (events.js:172:7)
9 verbose stack     at ChildProcess.<anonymous> (E:\Nodejs\node_modules\npm\lib\utils\spawn.js:24:14)
9 verbose stack     at emitTwo (events.js:87:13)
9 verbose stack     at ChildProcess.emit (events.js:172:7)
9 verbose stack     at maybeClose (internal/child_process.js:827:16)
9 verbose stack     at Process.ChildProcess._handle.onexit (internal/child_process.js:211:5)
10 verbose pkgid product-management@1.0.0
11 verbose cwd E:\Uni\raspicar\RaspiCarAngular\raspicar
12 error Windows_NT 10.0.10586
13 error argv "E:\\Nodejs\\node.exe" "E:\\Nodejs\\node_modules\\npm\\bin\\npm-cli.js" "run" "tsc:w"
14 error node v4.4.3
15 error npm  v2.15.1
16 error code ELIFECYCLE
17 error product-management@1.0.0 tsc:w: `tsc -w`
17 error Exit status 3221225786
18 error Failed at the product-management@1.0.0 tsc:w script 'tsc -w'.
18 error This is most likely a problem with the product-management package,
18 error not with npm itself.
18 error Tell the author that this fails on your system:
18 error     tsc -w
18 error You can get information on how to open an issue for this project with:
18 error     npm bugs product-management
18 error Or if that isn't available, you can get their info via:
18 error
18 error     npm owner ls product-management
18 error There is likely additional logging output above.
19 verbose exit [ 1, true ]
